C51 COMPILER V9.60.0.0   FLASH                                                             10/26/2021 13:23:57 PAGE 1   


C51 COMPILER V9.60.0.0, COMPILATION OF MODULE FLASH
NO OBJECT MODULE REQUESTED
COMPILER INVOKED BY: C:\Keil_v5\C51\BIN\C51.EXE flash.c LARGE OMF2 OPTIMIZE(8,SPEED) BROWSE DEBUG TABS(2) SRC(.\flash.SR
                    -C)

line level    source

   1          
   2           /* 
   3           Automatic Balancing Valve
   4           File: flash.c
   5           */
   6           
   7          #include  "AiP8F1016.h"
   8          #include "main.h"
   9           
  10           //************************************************************************************
  11          //                      BALANCING VALVE FLASH READ & WRITE
  12          //************************************************************************************
  13          
  14           
  15           
  16           xdata volatile BYTE eeval1; // return value
  17           xdata volatile BYTE eeval2;
  18          
  19          //AiP8F1016:
  20          #define CBYTE ((unsigned char volatile code  *) 0)
  21           
  22          // Mostly an assembly file as it takes less space and is faster
  23           
  24           // ********************NEED TO TEST AS NOT YET FULLY TESTED*************************************
  25          void reboot(void)
  26          {
  27   1        WORD i;
  28   1        do
  29   1        {
  30   2          do
  31   2          {
  32   3          // need to add the check for ABA is really off with a 10 minute check of the flow temperature
  33   3          TimerPoll();
  34   3          //AiP8F1016:
  35   3          }while(P02 == 0);
  36   2          //}while(P13 == 0); // do forever power is off (just for now)
  37   2          
  38   2        for(i=0;i<10000;i++);
  39   2        //AiP8F1016:  
  40   2        }while(P02 == 0);
  41   1        //}while(P13 == 0);
  42   1        redoit();
  43   1      }
  44          void redoit(void)
  45          {
  46   1        #pragma asm
  47   1        JMP 0
  48   1        #pragma endasm
  49   1      }
  50          
  51          void disablerst(void)
  52          {
  53   1      #pragma asm
  54   1        MOV RSTFR,#0
C51 COMPILER V9.60.0.0   FLASH                                                             10/26/2021 13:23:57 PAGE 2   

  55   1        MOV LVICR,#0
  56   1        MOV LVRCR,#0x01
  57   1        NOP
  58   1        MOV LVRCR,#0x01
  59   1        NOP
  60   1        MOV LVRCR,#0x01
  61   1      #pragma endasm
  62   1      }
  63          
  64          //AiP8F1016: Erase 1K from addr
  65          void PageErase(int addr)
  66          {
  67   1        addr = addr & 0xfc00;
  68   1        
  69   1        FMCR = 0x01;
  70   1        _nop_();
  71   1        _nop_();
  72   1        _nop_();
  73   1        
  74   1        FSADRH = 0x00;
  75   1        FSADRM = (BYTE)(addr >> 8);
  76   1        FSADRL = (BYTE)(addr & 0xff);
  77   1        
  78   1        FIDR = 0xa5;
  79   1        if(FSADRH == 0x00 
  80   1          && FSADRM == (BYTE)(addr >> 8) 
  81   1          && FSADRL == (BYTE)(addr & 0xff))
  82   1        {
  83   2          FMCR = 0x02;
  84   2          _nop_();
  85   2          _nop_();
  86   2          _nop_();
  87   2        }
  88   1      }
  89          
  90          //AiP8F1016: uint16 -> int, uint8 -> BYTE
  91          void ByteWrite(int addr, BYTE dat)
  92          {
  93   1        FMCR = 0x01;
  94   1        _nop_();
  95   1        _nop_();
  96   1        _nop_();
  97   1        
  98   1        *((BYTE xdata *)0x8000) = dat;
  99   1        
 100   1        FSADRH = 0x00;
 101   1        FSADRM = (BYTE)(addr >> 8);
 102   1        FSADRL = (BYTE)(addr & 0xff);
 103   1        
 104   1        FIDR = 0xa5;
 105   1        if(FSADRH == 0x00 
 106   1          && FSADRM == (BYTE)(addr >> 8) 
 107   1          && FSADRL == (BYTE)(addr & 0xff))
 108   1        {
 109   2          FMCR = 0x03;
 110   2          _nop_();
 111   2          _nop_();
 112   2          _nop_();
 113   2        }
 114   1      }
 115          
 116          BYTE ByteRead(int addr)
C51 COMPILER V9.60.0.0   FLASH                                                             10/26/2021 13:23:57 PAGE 3   

 117          {
 118   1        return CBYTE[addr];
 119   1      }
 120          
 121          int ReadData(int addr)
 122          {
 123   1        BYTE data8;
 124   1        int data16;
 125   1        data8 = ByteRead(addr+1); //higher byte
 126   1        data16 = data8;
 127   1        data8 = ByteRead(addr);   //lower byte
 128   1        data16 = (data16<<8) | data8;
 129   1        return data16;
 130   1      }
 131          
 132          void WriteData(int addr, int dataval)
 133          {
 134   1          ByteWrite(addr, (dataval&0x00ff));  
 135   1          ByteWrite(addr+1, ((dataval&0xff00)>>8));   
 136   1      } 
 137            
 138          //AiP8F1016: For 16KB flash -> address 3FA0 (change 1F to 3F)
 139          void EraseData(void)
 140            {
 141   1        #pragma asm
 142   1        MOV FMCR,#0x01
 143   1        NOP
 144   1        NOP
 145   1        NOP
 146   1        MOV A,#0
 147   1        MOV R0,#32
 148   1        MOV DPH,#0x80
 149   1        MOV DPL,#0
 150   1        Pgbufclr: MOVX @DPTR,A
 151   1        INC DPTR
 152   1        DJNZ R0,Pgbufclr
 153   1        MOV FSADRH,#0x00
 154   1        MOV FSADRM,#0x3F
 155   1        MOV FSADRL,#0xA0
 156   1        MOV FIDR,#0xA5
 157   1        MOV FMCR,#0x02
 158   1        NOP
 159   1        NOP
 160   1        NOP
 161   1        #pragma endasm
 162   1        }
 163          
 164          void WriteFlash()
 165            {
 166   1        #pragma asm
 167   1        MOV FSADRH,#0x00
 168   1        MOV FSADRM,#0x3F
 169   1        MOV FSADRL,#0xA0 
 170   1        MOV FIDR,#0xA5
 171   1        MOV FMCR,#0x03
 172   1        NOP
 173   1        NOP
 174   1        NOP 
 175   1        #pragma endasm
 176   1        }
 177            
 178            
C51 COMPILER V9.60.0.0   FLASH                                                             10/26/2021 13:23:57 PAGE 4   

 179          void WriteMaxCount(WORD eedata)
 180            {
 181   1        #pragma asm 
 182   1        MOV A,R6
 183   1        MOV DPH,#0x80
 184   1        MOV DPL,#0x00
 185   1        MOVX @DPTR,A
 186   1        MOV A,R7
 187   1        MOV DPH,#0x80
 188   1        MOV DPL,#0x01
 189   1        MOVX @DPTR,A
 190   1       #pragma endasm
 191   1        }
*** WARNING C280 IN LINE 179 OF flash.c: 'eedata': unreferenced local variable
 192           
 193          void WriteVOP(WORD eedata)
 194            {
 195   1        #pragma asm 
 196   1        MOV A,R6
 197   1        MOV DPH,#0x80
 198   1        MOV DPL,#0x02
 199   1        MOVX @DPTR,A
 200   1        MOV A,R7
 201   1        MOV DPH,#0x80
 202   1        MOV DPL,#0x03
 203   1        MOVX @DPTR,A
 204   1       #pragma endasm
 205   1        }
*** WARNING C280 IN LINE 193 OF flash.c: 'eedata': unreferenced local variable
 206          
 207          void WriteCAL(WORD eedata)
 208            {
 209   1        #pragma asm 
 210   1        MOV A,R6
 211   1        MOV DPH,#0x80
 212   1        MOV DPL,#0x06
 213   1        MOVX @DPTR,A
 214   1        MOV A,R7
 215   1        MOV DPH,#0x80
 216   1        MOV DPL,#0x07
 217   1        MOVX @DPTR,A
 218   1       #pragma endasm
 219   1        }
*** WARNING C280 IN LINE 207 OF flash.c: 'eedata': unreferenced local variable
 220            
 221          void WriteOnTimes(WORD eedata)
 222            {
 223   1        #pragma asm 
 224   1        MOV A,R6
 225   1        MOV DPH,#0x80
 226   1        MOV DPL,#0x08
 227   1        MOVX @DPTR,A
 228   1        MOV A,R7
 229   1        MOV DPH,#0x80
 230   1        MOV DPL,#0x09
 231   1        MOVX @DPTR,A
 232   1       #pragma endasm
 233   1        }
*** WARNING C280 IN LINE 221 OF flash.c: 'eedata': unreferenced local variable
 234            
 235          void WriteMotorPosition(WORD eedata)
 236            {
C51 COMPILER V9.60.0.0   FLASH                                                             10/26/2021 13:23:57 PAGE 5   

 237   1        #pragma asm 
 238   1        MOV A,R6
 239   1        MOV DPH,#0x80
 240   1        MOV DPL,#0x0A
 241   1        MOVX @DPTR,A
 242   1        MOV A,R7
 243   1        MOV DPH,#0x80
 244   1        MOV DPL,#0x0B
 245   1        MOVX @DPTR,A
 246   1       #pragma endasm
 247   1        }
*** WARNING C280 IN LINE 235 OF flash.c: 'eedata': unreferenced local variable
 248            
 249            
 250          void WriteLKBP(WORD eedata)
 251            {
 252   1        #pragma asm 
 253   1        MOV A,R6
 254   1        MOV DPH,#0x80
 255   1        MOV DPL,#0x0C
 256   1        MOVX @DPTR,A
 257   1        MOV A,R7
 258   1        MOV DPH,#0x80
 259   1        MOV DPL,#0x0D
 260   1        MOVX @DPTR,A
 261   1       #pragma endasm
 262   1        }
*** WARNING C280 IN LINE 250 OF flash.c: 'eedata': unreferenced local variable
 263            
 264            
 265          WORD ReadMaxCount(void)
 266          { 
 267   1        #pragma asm 
 268   1              MOV A,#0x00
 269   1              MOV DPH,#0x3F        
 270   1              MOV DPL,#0xA0   
 271   1              MOVC A,@A+DPTR
 272   1              MOV DPTR, #eeval1
 273   1              MOVX @DPTR,A
 274   1              MOV A,#0x00
 275   1              MOV DPH,#0x3F      
 276   1              MOV DPL,#0xA1    
 277   1              MOVC A,@A+DPTR
 278   1              MOV DPTR,#eeval2
 279   1              MOVX @DPTR,A
 280   1        #pragma endasm
 281   1        return ((eeval1 <<8 ) + eeval2);
 282   1        }
 283          
 284          WORD ReadVOP(void)
 285          { 
 286   1        #pragma asm 
 287   1              MOV A,#0x00
 288   1              MOV DPH,#0x3F        
 289   1              MOV DPL,#0xA2   
 290   1              MOVC A,@A+DPTR
 291   1              MOV DPTR, #eeval1
 292   1              MOVX @DPTR,A
 293   1              MOV A,#0x00
 294   1              MOV DPH,#0x3F      
 295   1              MOV DPL,#0xA3    
 296   1              MOVC A,@A+DPTR
C51 COMPILER V9.60.0.0   FLASH                                                             10/26/2021 13:23:57 PAGE 6   

 297   1              MOV DPTR,#eeval2
 298   1              MOVX @DPTR,A
 299   1        #pragma endasm
 300   1        return ((eeval1 <<8 ) + eeval2);
 301   1        }
 302          
 303          WORD ReadCAL(void)
 304          { 
 305   1        #pragma asm 
 306   1              MOV A,#0x00
 307   1              MOV DPH,#0x3F        
 308   1              MOV DPL,#0xA6   
 309   1              MOVC A,@A+DPTR
 310   1              MOV DPTR, #eeval1
 311   1              MOVX @DPTR,A
 312   1              MOV A,#0x00
 313   1              MOV DPH,#0x3F      
 314   1              MOV DPL,#0xA7    
 315   1              MOVC A,@A+DPTR
 316   1              MOV DPTR,#eeval2
 317   1              MOVX @DPTR,A
 318   1        #pragma endasm
 319   1        return ((eeval1 <<8 ) + eeval2);
 320   1        }
 321          
 322          WORD ReadOnTimes(void)
 323          { 
 324   1        #pragma asm 
 325   1              MOV A,#0x00
 326   1              MOV DPH,#0x3F        
 327   1              MOV DPL,#0xA8   
 328   1              MOVC A,@A+DPTR
 329   1              MOV DPTR, #eeval1
 330   1              MOVX @DPTR,A
 331   1              MOV A,#0x00
 332   1              MOV DPH,#0x3F      
 333   1              MOV DPL,#0xA9    
 334   1              MOVC A,@A+DPTR
 335   1              MOV DPTR,#eeval2
 336   1              MOVX @DPTR,A
 337   1        #pragma endasm
 338   1        return ((eeval1 <<8 ) + eeval2);
 339   1        }
 340          WORD ReadMotorPosition(void)
 341          { 
 342   1        #pragma asm 
 343   1              MOV A,#0x00
 344   1              MOV DPH,#0x3F        
 345   1              MOV DPL,#0xAA   
 346   1              MOVC A,@A+DPTR
 347   1              MOV DPTR, #eeval1
 348   1              MOVX @DPTR,A
 349   1              MOV A,#0x00
 350   1              MOV DPH,#0x3F      
 351   1              MOV DPL,#0xAB    
 352   1              MOVC A,@A+DPTR
 353   1              MOV DPTR,#eeval2
 354   1              MOVX @DPTR,A
 355   1        #pragma endasm
 356   1        return ((eeval1 <<8 ) + eeval2);
 357   1        }
 358            
C51 COMPILER V9.60.0.0   FLASH                                                             10/26/2021 13:23:57 PAGE 7   

 359          WORD ReadLKBP(void)
 360          { 
 361   1        #pragma asm 
 362   1              MOV A,#0x00
 363   1              MOV DPH,#0x3F        
 364   1              MOV DPL,#0xAC   
 365   1              MOVC A,@A+DPTR
 366   1              MOV DPTR, #eeval1
 367   1              MOVX @DPTR,A
 368   1              MOV A,#0x00
 369   1              MOV DPH,#0x3F      
 370   1              MOV DPL,#0xAD    
 371   1              MOVC A,@A+DPTR
 372   1              MOV DPTR,#eeval2
 373   1              MOVX @DPTR,A
 374   1        #pragma endasm
 375   1        return ((eeval1 <<8 ) + eeval2);
 376   1        }
 377            
 378            
 379            


MODULE INFORMATION:   STATIC OVERLAYABLE
   CODE SIZE        =    833    ----
   CONSTANT SIZE    =   ----    ----
   XDATA SIZE       =      2      18
   PDATA SIZE       =   ----    ----
   DATA SIZE        =   ----    ----
   IDATA SIZE       =   ----    ----
   BIT SIZE         =   ----    ----
   EDATA SIZE       =   ----    ----
   HDATA SIZE       =   ----    ----
   XDATA CONST SIZE =   ----    ----
   FAR CONST SIZE   =   ----    ----
END OF MODULE INFORMATION.


C51 COMPILATION COMPLETE.  6 WARNING(S),  0 ERROR(S)
